…
## 1. Model Designs

### 1.1 Import Data

Set seeds to `123`. Import excel data representing training data of
red-stage beetle attacks from candidate spectral indices sample in-field
in forest health surveys.

``` r
set.seed(123)
darkwoods_beetle_plots_data <- read_excel("2.1.darkwoods_beetle_ground_plots.xlsx")
print(darkwoods_beetle_plots_data)
```

    # A tibble: 28 × 7
        plot pi_mpb_killed pi_mpb_killed_pc   ndmi taswet tasgre tasbri
       <dbl>         <dbl>            <dbl>  <dbl>  <dbl>  <dbl>  <dbl>
     1    26          47.4             75.4 -0.166 -3653.  8290. 15922.
     2    27          44.8             77.9 -0.163 -3627.  8214. 15823.
     3    19          42.3             80.3 -0.156 -4057.  8474. 16402.
     4     2          39.8             80.7 -0.153 -3478.  8063. 15531.
     5     3          37.2             80.7 -0.152 -3576.  8188. 15796.
     6    17          34.7             81.3 -0.140 -4135.  8744. 16855.
     7    20          32.1             81.5 -0.139 -4821.  9452. 18099.
     8    22          29.6             81.7 -0.138 -4460.  8701. 16967.
     9    21          27.1             82.4 -0.133 -4374.  8755. 17018.
    10    18          26.8             82.5 -0.131 -5081.  9102. 17824.
    # ℹ 18 more rows
…
